<?xml version="1.0" encoding="utf-8"?>
<!-- Generator: Adobe Illustrator 24.1.2, SVG Export Plug-In . SVG Version: 6.00 Build 0)  -->
<svg version="1.1" id="rpst_x5F_logotype-3" xmlns="http://www.w3.org/2000/svg" xmlns:xlink="http://www.w3.org/1999/xlink"
	 x="0px" y="0px" viewBox="0 0 523.5 187" style="enable-background:new 0 0 523.5 187;" xml:space="preserve">
<style type="text/css">
	.st0{fill:#FFFFFF;stroke:#000000;stroke-miterlimit:10;}
	.st1{display:none;}
	.st2{display:inline;}
	.st3{fill:#323232;}
</style>
<rect x="-14.5" class="st0" width="561.4" height="187"/>
<g id="logo-4" class="st1">
	<polygon class="st2" points="488.4,61.3 421.8,61.3 421.8,69.9 448.7,69.9 448.7,130.1 459.4,130.1 459.4,69.9 488.4,69.9 	"/>
	<path class="st2" d="M269.3,61.3v68.8h66V61.3H269.3z M280,121.5V69.9h44.5v51.6H280z"/>
	<polygon class="st2" points="182.2,69.9 182.2,61.3 116.7,61.3 116.7,130.1 182.2,130.1 182.2,121.5 127.4,121.5 127.4,97.8 
		168.3,97.8 168.3,89.2 127.4,89.2 127.4,69.9 	"/>
	<polygon class="st2" points="105.9,61.3 40.4,61.3 40.4,130.1 51.1,130.1 51.1,77.8 98,130.1 105.2,123.6 58,71 105.9,71 	"/>
	<path class="st2" d="M193,61.3v36.5v32.2h10.7V97.8h54.8V61.3H193z M247.8,89.2h-44.1V69.9h44.1V89.2z"/>
	<polygon class="st2" points="411.5,69.9 411.5,61.3 345.9,61.3 345.9,97.8 400.7,97.8 400.7,121.5 345.9,121.5 345.9,130.1 
		411.5,130.1 411.5,89.2 356.7,89.2 356.7,69.9 	"/>
</g>
<rect x="339.2" y="83.8" transform="matrix(-1.836970e-16 1 -1 -1.836970e-16 469.2562 -277.8844)" class="st3" width="68.8" height="23.8"/>
<g>
	<rect x="123.9" y="61.3" class="st3" width="68.8" height="23.8"/>
	
		<rect x="123.6" y="83.8" transform="matrix(-1.836970e-16 1 -1 -1.836970e-16 253.7074 -62.3356)" class="st3" width="68.8" height="23.8"/>
	
		<rect x="182.4" y="83.8" transform="matrix(-1.836970e-16 1 -1 -1.836970e-16 312.4252 -121.0534)" class="st3" width="68.8" height="23.8"/>
	
		<rect x="328.9" y="83.8" transform="matrix(-1.836970e-16 1 -1 -1.836970e-16 458.9556 -267.5838)" class="st3" width="68.8" height="23.8"/>
	
		<rect x="248.5" y="83.8" transform="matrix(-1.836970e-16 1 -1 -1.836970e-16 378.5497 -187.1778)" class="st3" width="68.8" height="23.8"/>
	
		<rect x="271" y="106.3" transform="matrix(-1 -1.224647e-16 1.224647e-16 -1 610.6917 236.336)" class="st3" width="68.8" height="23.8"/>
	<circle class="st3" cx="386.2" cy="95.7" r="34.4"/>
	<circle class="st3" cx="243.6" cy="78.5" r="17.2"/>
	<circle class="st3" cx="243.6" cy="112.9" r="17.2"/>
	
		<rect x="197.3" y="83.8" transform="matrix(-1.836970e-16 1 -1 -1.836970e-16 327.3371 -135.9652)" class="st3" width="68.8" height="23.8"/>
</g>
</svg>
