<svg width="86" height="16" viewBox="0 0 86 16" fill="none" xmlns="http://www.w3.org/2000/svg">
<path d="M34.0437 3.36584C33.9938 3.4595 34.0125 3.55939 34.0125 3.65929C34.0125 6.96842 34.0125 10.2838 34.0125 13.5929C34.0125 13.8489 34.0188 14.1049 34.0562 14.3609C34.0999 14.6668 34.2498 14.8666 34.5557 14.9353C34.8117 14.9915 35.0739 15.0477 35.3299 15.1101C35.4111 15.1288 35.486 15.1476 35.5734 15.1726C35.6296 15.3286 35.6109 15.4785 35.5922 15.6283C35.3861 15.6783 29.4859 15.6908 29.1612 15.6408C29.1425 15.491 29.13 15.3411 29.1799 15.1726C29.3673 15.1288 29.5483 15.0851 29.7356 15.0477C29.8605 15.0227 29.9854 14.9915 30.104 14.9353C30.2913 14.8541 30.4162 14.7168 30.4661 14.517C30.5223 14.286 30.5598 14.0549 30.5598 13.8114C30.5598 10.6272 30.5598 7.44293 30.5598 4.25868C30.5598 4.02142 30.5286 3.78417 30.4661 3.55315C30.4099 3.32838 30.2726 3.18478 30.0603 3.10985C29.8355 3.02869 29.6045 2.97874 29.3735 2.93503C29.2986 2.92254 29.2299 2.9163 29.1675 2.84138C29.1425 2.72275 29.1487 2.58539 29.1612 2.46051C29.2361 2.38559 29.3236 2.40432 29.3985 2.40432C31.6399 2.40432 33.8814 2.39183 36.1229 2.42305C37.0781 2.43554 38.0147 2.60412 38.8888 3.02244C39.9377 3.51569 40.5496 4.3336 40.7119 5.48243C40.8181 6.20669 40.7994 6.91847 40.5746 7.624C40.2686 8.5543 39.6755 9.2411 38.8326 9.7281C38.2082 10.0902 37.5277 10.2838 36.8097 10.365C36.1478 10.4399 35.4985 10.4274 34.8554 10.2526C34.7742 10.2338 34.6931 10.2151 34.6182 10.1464C34.5682 10.0028 34.5869 9.84049 34.6057 9.69064C34.6681 9.60947 34.743 9.62196 34.8179 9.62196C35.1239 9.62196 35.4173 9.57826 35.7108 9.50958C36.4038 9.35973 36.8222 8.91643 37.0532 8.26709C37.1968 7.84877 37.253 7.41172 37.2717 6.97466C37.2967 6.32532 37.2904 5.67599 37.2093 5.03289C37.1718 4.75817 37.1094 4.49594 37.0095 4.23371C36.7785 3.59061 36.3039 3.29716 35.6608 3.20975C35.1801 3.14731 34.7118 3.20975 34.2435 3.27219C34.1686 3.27843 34.0999 3.30341 34.0437 3.36584Z" fill="white"/>
<path d="M54.0857 3.23453C54.0045 3.17209 53.9234 3.16585 53.8422 3.17209C53.6237 3.19082 53.4051 3.20955 53.1866 3.22828C52.7308 3.26574 52.375 3.49051 52.1002 3.84016C51.7818 4.24599 51.5321 4.69554 51.3135 5.15756C51.1012 5.61335 50.9015 6.07538 50.7017 6.53116C50.6704 6.60609 50.6517 6.68726 50.5768 6.75594C50.402 6.78715 50.2271 6.78091 50.0273 6.75594C50.0773 5.30741 50.1272 3.87762 50.1772 2.46031C50.2334 2.38539 50.3021 2.39788 50.3645 2.39163C50.4269 2.39163 50.4956 2.39163 50.5581 2.39163C54.0795 2.39163 57.6009 2.39163 61.1223 2.39163C61.2409 2.39163 61.3595 2.36666 61.5031 2.43534C61.5531 3.85889 61.603 5.30117 61.653 6.75594C61.4657 6.77467 61.2909 6.77467 61.1223 6.75594C61.0224 6.63731 60.9849 6.4937 60.9287 6.36259C60.6228 5.65706 60.3231 4.95152 59.911 4.30219C59.7424 4.03995 59.5614 3.79021 59.3491 3.55919C59.1992 3.39686 59.0119 3.29696 58.7996 3.26574C58.4812 3.22204 58.1628 3.19706 57.8444 3.16585C57.7632 3.1596 57.682 3.16585 57.6071 3.22204C57.5447 3.30945 57.5634 3.41559 57.5634 3.50925C57.5634 6.90578 57.5634 10.2961 57.5634 13.6926C57.5634 13.9299 57.5946 14.1671 57.6196 14.4044C57.6571 14.6978 57.8194 14.8914 58.1066 14.9663C58.3189 15.0163 58.5374 15.0537 58.7497 15.0974C58.8371 15.1162 58.9308 15.1224 59.0244 15.1786C59.0931 15.316 59.0619 15.4658 59.0431 15.6094C58.8184 15.6594 52.9681 15.6718 52.6559 15.6219C52.6185 15.4783 52.6185 15.3284 52.6684 15.1536C52.862 15.1099 53.0555 15.0662 53.2491 15.0225C53.349 15.0038 53.4489 14.985 53.5425 14.9601C53.8297 14.8914 53.9983 14.7103 54.0607 14.4231C54.1044 14.2171 54.1169 14.0048 54.1169 13.7988C54.1169 11.32 54.1169 8.84131 54.1169 6.36259C54.1169 5.43228 54.1169 4.49574 54.1169 3.56544C54.1169 3.46554 54.1357 3.35315 54.0857 3.23453Z" fill="white"/>
<path d="M67.5157 11.4759C67.1286 11.4197 63.9006 11.4385 63.6946 11.5009C63.5509 11.8068 63.4698 12.144 63.3574 12.4749C63.2075 12.9432 63.0202 13.4052 62.964 13.8985C62.9578 13.9422 62.9516 13.9859 62.9453 14.0358C62.9016 14.554 63.0452 14.7726 63.5322 14.9536C63.7695 15.041 64.0255 15.0785 64.2565 15.1784C64.3127 15.3844 64.3127 15.3844 64.2752 15.6342C64.0317 15.6841 60.5915 15.6841 60.3542 15.6279C60.298 15.4906 60.3105 15.3532 60.3417 15.2096C60.4416 15.1097 60.5727 15.0785 60.6914 15.0535C61.2096 14.9536 61.4905 14.6102 61.6903 14.1607C61.8777 13.7549 62.0213 13.3303 62.1711 12.9057C62.6331 11.6445 63.0827 10.3771 63.5385 9.11584C64.0754 7.61737 64.6186 6.12514 65.1556 4.62667C65.3928 3.97108 65.6301 3.32175 65.8673 2.66616C65.8986 2.57875 65.9173 2.49134 65.986 2.42266C66.2232 2.37896 67.6031 2.37896 67.8653 2.42891C67.9902 2.75358 68.1213 3.09698 68.2462 3.44038C68.9892 5.45707 69.7321 7.47376 70.4751 9.48421C70.9746 10.8328 71.4679 12.1752 71.9736 13.5238C72.086 13.8298 72.2171 14.1357 72.3794 14.4229C72.5668 14.7538 72.8165 15.0036 73.2036 15.0848C73.2973 15.1035 73.4034 15.1222 73.4908 15.1909C73.5345 15.3283 73.5095 15.4719 73.5095 15.5905C73.4846 15.6217 73.4783 15.6279 73.4721 15.6342C73.4658 15.6404 73.4596 15.6467 73.4471 15.6467C71.4242 15.6779 69.4012 15.6529 67.3845 15.6592C67.3283 15.6592 67.2784 15.6529 67.216 15.6467C67.1473 15.4906 67.1847 15.3407 67.191 15.1909C67.3471 15.0972 67.5157 15.0723 67.6718 15.0286C68.2836 14.8662 68.4772 14.5665 68.371 13.9359C68.3211 13.6362 68.2212 13.3553 68.1213 13.0681C67.9527 12.5873 67.7841 12.1003 67.6156 11.6195C67.5968 11.5758 67.5781 11.5259 67.5157 11.4759ZM67.2097 10.5956C67.2472 10.5019 67.1972 10.4208 67.166 10.3333C66.9163 9.5966 66.6665 8.86609 66.4168 8.12934C66.2107 7.51747 66.0047 6.89935 65.7924 6.28747C65.7487 6.16884 65.7425 6.01275 65.5489 5.91285C65.2555 6.69331 65.012 7.46752 64.756 8.24173C64.4937 9.02218 64.2128 9.80264 63.9818 10.5956C64.2565 10.6643 66.9974 10.658 67.2097 10.5956Z" fill="white"/>
<path d="M22.7554 11.4642C22.3683 11.408 19.1403 11.4268 18.9343 11.4892C18.7907 11.7951 18.7095 12.1323 18.5971 12.4632C18.4473 12.9315 18.26 13.3935 18.2038 13.8867C18.1975 13.9304 18.1913 13.9742 18.1851 14.0241C18.1414 14.5423 18.285 14.7609 18.772 14.9419C19.0092 15.0293 19.2652 15.0668 19.4962 15.1667C19.5524 15.3727 19.5524 15.3727 19.515 15.6225C19.2715 15.6724 15.8312 15.6724 15.594 15.6162C15.5378 15.4789 15.5502 15.3415 15.5815 15.1979C15.6814 15.098 15.8125 15.0668 15.9311 15.0418C16.4493 14.9419 16.7303 14.5985 16.9301 14.149C17.1174 13.7431 17.261 13.3186 17.4109 12.894C17.8729 11.6328 18.3224 10.3653 18.7782 9.10412C19.3152 7.60565 19.8584 6.11342 20.3953 4.61495C20.6326 3.95937 20.8698 3.31003 21.1071 2.65445C21.1383 2.56703 21.157 2.47962 21.2257 2.41094C21.463 2.36724 22.8428 2.36724 23.105 2.41719C23.2299 2.74186 23.361 3.08526 23.4859 3.42866C24.2289 5.44535 24.9719 7.46204 25.7149 9.47249C26.2144 10.8211 26.7076 12.1635 27.2134 13.5121C27.3257 13.8181 27.4569 14.124 27.6192 14.4112C27.8065 14.7421 28.0562 14.9919 28.4434 15.073C28.537 15.0918 28.6432 15.1105 28.7306 15.1792C28.7743 15.3165 28.7493 15.4601 28.7493 15.5788C28.7243 15.61 28.7181 15.6162 28.7118 15.6225C28.7056 15.6287 28.6993 15.635 28.6869 15.635C26.6639 15.6662 24.641 15.6412 22.6243 15.6474C22.5681 15.6474 22.5181 15.6412 22.4557 15.635C22.387 15.4789 22.4245 15.329 22.4307 15.1792C22.5868 15.0855 22.7554 15.0605 22.9115 15.0168C23.5234 14.8545 23.7169 14.5548 23.6108 13.9242C23.5608 13.6245 23.4609 13.3435 23.361 13.0563C23.1925 12.5756 23.0239 12.0886 22.8553 11.6078C22.8366 11.5641 22.8178 11.5142 22.7554 11.4642ZM22.4495 10.5839C22.4869 10.4902 22.437 10.409 22.4058 10.3216C22.156 9.58488 21.9063 8.85437 21.6565 8.11763C21.4505 7.50575 21.2444 6.88763 21.0322 6.27575C20.9885 6.15712 20.9822 6.00103 20.7887 5.90114C20.4952 6.68159 20.2517 7.4558 19.9957 8.23001C19.7335 9.01047 19.4525 9.79092 19.2215 10.5839C19.4962 10.6525 22.2372 10.6463 22.4495 10.5839Z" fill="white"/>
<path d="M80.6963 2.4226C80.6963 2.5662 80.6963 2.69108 80.6963 2.81595C80.6526 2.89712 80.5714 2.91585 80.4903 2.92834C80.2343 2.9658 79.9908 3.02823 79.741 3.09691C79.4226 3.18432 79.2665 3.36539 79.2291 3.6963C79.1978 3.97102 79.1853 4.2395 79.1853 4.52046C79.1853 7.25517 79.1853 9.98989 79.1853 12.7246C79.1853 13.1429 79.1916 13.5675 79.2228 13.9858C79.2603 14.4915 79.5225 14.735 80.0157 14.8037C80.6401 14.8911 81.2707 14.9036 81.9013 14.81C82.3634 14.7413 82.7567 14.5602 83.0502 14.1856C83.4497 13.6799 83.7432 13.1117 84.0242 12.5373C84.224 12.1252 84.3988 11.7069 84.5674 11.2823C84.5986 11.1949 84.6236 11.1075 84.6985 11.0326C84.8608 11.0014 85.0356 11.0076 85.2354 11.0263C85.1667 12.5685 85.0356 14.092 84.9545 15.5904C84.917 15.6216 84.9108 15.6279 84.9045 15.6341C84.8983 15.6404 84.892 15.6466 84.8795 15.6466C84.7984 15.6529 84.7172 15.6591 84.636 15.6591C81.227 15.6591 77.8117 15.6529 74.4027 15.6529C74.3902 15.6529 74.3715 15.6341 74.3403 15.6216C74.3091 15.4905 74.3278 15.3469 74.334 15.2033C74.5214 15.1034 74.7149 15.0909 74.896 15.041C75.0021 15.0098 75.1083 14.9973 75.2144 14.9598C75.4392 14.8849 75.5828 14.7413 75.6514 14.504C75.7139 14.2917 75.7451 14.0732 75.7451 13.8547C75.7451 12.9369 75.7451 12.0253 75.7451 11.1075C75.7451 8.8036 75.7451 6.49969 75.7451 4.18955C75.7451 3.95853 75.7201 3.73376 75.6514 3.51524C75.5765 3.29047 75.4392 3.14062 75.2019 3.07818C74.9834 3.02199 74.7649 2.94707 74.5401 2.91585C74.4776 2.90336 74.4152 2.88463 74.359 2.82219C74.3216 2.70356 74.334 2.57245 74.3465 2.44133C74.5338 2.38514 80.2468 2.36641 80.6963 2.4226Z" fill="white"/>
<path d="M48.2233 15.1726C48.2233 15.3412 48.2233 15.4848 48.2233 15.6471C46.1005 15.6471 43.9964 15.6471 41.8736 15.6471C41.8486 15.4848 41.8423 15.335 41.886 15.1664C42.0921 15.1227 42.2981 15.079 42.4979 15.0353C42.6041 15.0103 42.7165 14.9916 42.8164 14.9603C43.0411 14.8854 43.1847 14.7356 43.2409 14.4983C43.2971 14.2548 43.3283 14.0113 43.3283 13.7678C43.3283 12.5878 43.3283 11.4077 43.3283 10.2277C43.3283 8.3421 43.3283 6.45652 43.3283 4.57719C43.3283 4.25876 43.3283 3.94033 43.2534 3.62191C43.191 3.3347 43.0474 3.15364 42.7414 3.08496C42.5104 3.03501 42.2856 2.96633 42.0484 2.93511C41.986 2.92887 41.9235 2.91014 41.8673 2.84146C41.8486 2.72283 41.8486 2.58547 41.8673 2.46059C41.8798 2.44811 41.8861 2.43562 41.8923 2.43562C41.8985 2.42938 41.9048 2.42313 41.9173 2.42313C41.9422 2.41689 41.9735 2.41064 41.9984 2.41064C44.0276 2.41064 46.0568 2.41064 48.0922 2.41064C48.1297 2.41064 48.1609 2.41689 48.2109 2.42313C48.2483 2.56674 48.2233 2.71034 48.2233 2.83521C48.1609 2.91014 48.0922 2.92887 48.0173 2.93511C47.7613 2.96633 47.5178 3.04125 47.2681 3.10369C47.0183 3.16612 46.881 3.32846 46.8248 3.57196C46.7748 3.79673 46.7561 4.0215 46.7561 4.25252C46.7561 5.45754 46.7561 6.6688 46.7561 7.87382C46.7561 9.8593 46.7561 11.8448 46.7561 13.8303C46.7561 14.03 46.7748 14.2298 46.8123 14.4296C46.8622 14.7293 47.037 14.9042 47.3118 14.9791C47.5615 15.0415 47.8113 15.0852 48.061 15.1414C48.1172 15.1477 48.1547 15.1601 48.2233 15.1726Z" fill="white"/>
<path d="M0.290693 1.08734C0.278206 0.925008 0.265719 0.768917 0.296937 0.625313C0.552926 0.562877 7.0026 0.55039 7.32727 0.612826C7.39595 0.768917 7.37098 0.925008 7.346 1.09359C7.12123 1.23095 6.859 1.21222 6.62798 1.29963C6.55306 1.33084 6.46565 1.34333 6.39072 1.36831C6.09727 1.46196 5.92869 1.668 5.86626 1.96769C5.81631 2.18622 5.81007 2.39851 5.81007 2.61703C5.81007 4.83352 5.81007 7.05001 5.81007 9.26026C5.81007 10.715 5.81007 12.1698 5.81007 13.6308C5.81007 13.8493 5.82255 14.0679 5.8725 14.2801C5.93494 14.5736 6.10352 14.7609 6.39072 14.8483C6.59052 14.9107 6.79032 14.9545 6.99011 15.0106C7.1025 15.0419 7.20864 15.0606 7.31478 15.0918C7.40219 15.2791 7.38346 15.4477 7.346 15.6163C7.11499 15.6787 0.808915 15.7037 0.315668 15.6413C0.259475 15.4727 0.278206 15.3041 0.309424 15.1293C0.496733 15.0231 0.71526 15.0294 0.908813 14.9669C1.00871 14.9357 1.10861 14.917 1.20851 14.892C1.55815 14.7984 1.7517 14.5673 1.8079 14.2177C1.84536 13.9742 1.88906 13.7245 1.88906 13.4747C1.88906 9.91584 1.88282 6.36321 1.88906 2.80434C1.88906 2.5546 1.8516 2.30485 1.81414 2.06135C1.75795 1.65551 1.52693 1.40577 1.1211 1.31836C0.940031 1.2809 0.758966 1.23719 0.571657 1.19348C0.484246 1.16851 0.396835 1.14978 0.290693 1.08734Z" fill="white"/>
<path d="M15.3254 15.0287C14.8384 15.01 14.4326 14.779 14.1329 14.3544C13.5585 13.5365 12.9841 12.7186 12.4471 11.8819C11.4731 10.3709 10.5678 8.81628 9.71239 7.2304C9.54381 6.91197 9.35651 6.59979 9.23788 6.27512C9.28783 6.13776 9.38148 6.06908 9.4564 5.98167C10.062 5.30736 10.6614 4.63305 11.2671 3.95873C11.8415 3.31564 12.4096 2.66006 13.0153 2.05442C13.3836 1.68605 13.802 1.41757 14.3077 1.27397C14.4825 1.22402 14.6761 1.21778 14.8259 1.09915C14.8696 0.811941 14.8696 0.811941 14.801 0.605901C14.4451 0.543464 9.89346 0.562195 9.6562 0.630875C9.63123 0.786966 9.62498 0.949301 9.66244 1.10539C9.77483 1.1928 9.8997 1.21153 10.0183 1.24275C10.2181 1.29894 10.4179 1.35514 10.599 1.46128C10.8675 1.62361 10.9861 1.86087 10.9674 2.16681C10.9549 2.39782 10.8924 2.61635 10.7925 2.82239C10.6365 3.14082 10.4304 3.42802 10.1994 3.6965C9.36275 4.66426 8.5261 5.63203 7.68321 6.59355C7.24616 7.09304 6.81535 7.59877 6.39702 8.07953C6.3658 8.3043 6.37205 8.47912 6.45946 8.66019C7.47717 10.783 8.63224 12.8247 9.97463 14.7602C10.1807 15.0599 10.368 15.3721 10.599 15.6343C10.7801 15.6593 13.0652 15.6655 15.3192 15.6655V15.0287H15.3254Z" fill="white"/>
</svg>
