<svg width="8" height="16" viewBox="0 0 8 16" fill="none" xmlns="http://www.w3.org/2000/svg">
<path fill-rule="evenodd" clip-rule="evenodd" d="M1.90461 11.7263C1.90461 10.5526 1.89964 9.37964 1.90887 8.20664C1.90887 8.00783 1.85067 7.94686 1.63917 7.95481C1.2474 7.96939 0.85846 7.95481 0.463137 7.96144C0.304156 7.96542 0.245958 7.92433 0.250216 7.76727C0.25826 7.03519 0.25826 6.3029 0.250216 5.57039C0.250216 5.42989 0.29422 5.3835 0.446814 5.38615C0.847815 5.39477 1.24953 5.37555 1.64982 5.39411C1.8819 5.40471 1.92945 5.32784 1.92519 5.12902C1.911 4.57191 1.911 4.01435 1.92519 3.45635C1.94081 2.77574 2.13812 2.14021 2.57105 1.58684C3.12039 0.88636 3.90181 0.565609 4.80246 0.526509C5.72512 0.488072 6.65559 0.509278 7.5825 0.5C7.71168 0.5 7.75 0.541751 7.75 0.659051C7.74574 1.39952 7.74574 2.13998 7.75 2.88045C7.75 3.01299 7.70529 3.05275 7.56689 3.0501C7.12117 3.04348 6.67546 3.0501 6.23045 3.0501C5.63711 3.0501 5.28225 3.33706 5.24534 3.88512C5.21553 4.32449 5.23753 4.76652 5.22618 5.21054C5.22192 5.3676 5.32199 5.357 5.43342 5.357C6.11051 5.357 6.78831 5.36296 7.4654 5.35236C7.66412 5.35236 7.72942 5.39212 7.70671 5.58696C7.62154 6.32256 7.54844 7.05949 7.48101 7.79709C7.4654 7.96343 7.38449 7.9959 7.22408 7.9959C6.68965 7.98795 6.15522 7.9906 5.62008 7.9959C5.23612 7.9959 5.27373 7.94355 5.27373 8.30936C5.27373 10.6056 5.26876 12.9026 5.27941 15.2015C5.27941 15.4441 5.21411 15.5044 4.95719 15.4998C4.03926 15.4839 3.12134 15.4839 2.20341 15.4998C1.94507 15.5044 1.90248 15.4229 1.90461 15.2075C1.90958 14.0391 1.90461 12.8827 1.90461 11.7263Z" fill="black"/>
</svg>
