<svg width="14" height="12" viewBox="0 0 14 12" fill="none" xmlns="http://www.w3.org/2000/svg">
<path d="M12.9982 0.546322L0.414474 5.19589C0.325965 5.22944 0.250622 5.28819 0.198845 5.36405C0.147067 5.43991 0.121407 5.52913 0.125405 5.61939C0.129404 5.70966 0.162864 5.79653 0.221168 5.868C0.279472 5.93948 0.359746 5.99204 0.45091 6.01844L3.65067 6.91319L4.84313 10.5016C4.87175 10.5875 4.92336 10.6648 4.9929 10.7261C5.06245 10.7875 5.14757 10.8307 5.23997 10.8515C5.33238 10.8724 5.42891 10.8702 5.52016 10.8452C5.61141 10.8202 5.69426 10.7732 5.76066 10.7088L7.41685 9.10769L10.6597 11.365C10.7498 11.4324 10.8569 11.4765 10.9704 11.4928C11.0839 11.5092 11.1999 11.4974 11.3071 11.4584C11.4144 11.4195 11.5091 11.3548 11.582 11.2707C11.6548 11.1867 11.7034 11.0861 11.7229 10.9788L13.8661 1.23073C13.8848 1.12355 13.8739 1.0136 13.8345 0.911607C13.795 0.809615 13.7282 0.719079 13.6408 0.648846C13.5533 0.578614 13.4482 0.53109 13.3355 0.510918C13.2229 0.490747 13.1067 0.498618 12.9982 0.533764V0.546322ZM11.4215 2.70628L5.57516 7.60702C5.5175 7.65558 5.48091 7.72271 5.47248 7.79538L5.24724 9.67907C5.24724 9.69406 5.24096 9.70844 5.22978 9.71903C5.21859 9.72963 5.20343 9.73558 5.18762 9.73558C5.1718 9.73558 5.15664 9.72963 5.14546 9.71903C5.13427 9.70844 5.12799 9.69406 5.12799 9.67907L4.20053 6.85354C4.18262 6.7902 4.18609 6.72314 4.21045 6.66177C4.23481 6.60039 4.27883 6.54779 4.33633 6.51134L11.2393 2.48652C11.2718 2.46362 11.3126 2.4539 11.3527 2.4595C11.3927 2.46509 11.4288 2.48554 11.453 2.51635C11.4771 2.54715 11.4874 2.5858 11.4815 2.62377C11.4756 2.66175 11.454 2.69595 11.4215 2.71884V2.70628Z" fill="black"/>
</svg>
