<svg width="16" height="10" viewBox="0 0 16 10" fill="none" xmlns="http://www.w3.org/2000/svg">
<path d="M13.0598 4.91471C13.0598 4.91471 15.0758 2.0578 15.276 1.11905C15.3429 0.783545 15.1956 0.596021 14.8487 0.596021H13.0997C12.6994 0.596021 12.5521 0.770554 12.4324 1.02529C12.4324 1.02529 11.4868 3.04908 10.3365 4.32503C9.96714 4.73735 9.77936 4.86162 9.57529 4.86162C9.41113 4.86162 9.33523 4.7238 9.33523 4.35327V1.09081C9.33523 0.634995 9.28182 0.500565 8.90796 0.500565H6.10429C5.89066 0.500565 5.75742 0.625393 5.75742 0.795407C5.75742 1.22468 6.41181 1.32183 6.41181 2.48538V4.8859C6.41181 5.36883 6.38539 5.55636 6.15826 5.55636C5.55728 5.55636 4.1293 3.47722 3.32817 1.11679C3.16794 0.633865 2.99423 0.5 2.5411 0.5H0.790981C0.537431 0.5 0.35022 0.674533 0.35022 0.929271C0.35022 1.39864 0.897798 3.57155 3.04876 6.48211C4.49023 8.44038 6.38595 9.5 8.09503 9.5C9.13621 9.5 9.38808 9.32547 9.38808 8.88321V7.38076C9.38808 7.00515 9.53481 6.84417 9.74844 6.84417C9.9885 6.84417 10.413 6.92155 11.4035 7.90379C12.5785 9.03063 12.6584 9.5 13.2993 9.5H15.2625C15.4626 9.5 15.6498 9.40624 15.6498 9.07073C15.6498 8.6279 15.0758 7.83658 14.1948 6.89783C13.8345 6.4149 13.247 5.89187 13.0603 5.65068C12.7927 5.3694 12.8726 5.20842 13.0598 4.91471Z" fill="black"/>
</svg>
